module octaaf

require (
	github.com/AlekSi/pointer v1.0.0 // indirect
	github.com/BartWillems/go-env v0.0.0-20181231133509-98607f11c65f
	github.com/BurntSushi/toml v0.3.1
	github.com/PuerkitoBio/goquery v1.5.0
	github.com/araddon/dateparse v0.0.0-20181123171228-21df004e09ca
	github.com/ddliu/go-httpclient v0.5.1 // indirect
	github.com/dghubble/sling v1.2.0
	github.com/disintegration/imaging v1.5.0
	github.com/dustin/go-humanize v1.0.0
	github.com/fatih/structs v1.1.0
	github.com/fogleman/gg v1.2.0
	github.com/gin-gonic/gin v1.3.0
	github.com/go-redis/cache v6.3.5+incompatible
	github.com/go-redis/redis v6.15.8+incompatible
	github.com/go-telegram-bot-api/telegram-bot-api v4.6.4+incompatible
	github.com/gobuffalo/envy v1.6.15
	github.com/gobuffalo/nulls v0.0.0-20190305142546-85f3c9250d87
	github.com/gobuffalo/pop v4.10.0+incompatible
	github.com/gobuffalo/uuid v2.0.5+incompatible
	github.com/golang/freetype v0.0.0-20170609003504-e2365dfdc4a0 // indirect
	github.com/google/go-querystring v1.0.0 // indirect
	github.com/imdario/mergo v0.3.6
	github.com/jackc/pgx v3.3.0+incompatible // indirect
	github.com/olebedev/when v0.0.0-20171024044931-53693fbb59a8
	github.com/opentracing/opentracing-go v1.1.0
	github.com/simplereach/timeutils v1.2.0 // indirect
	github.com/sirupsen/logrus v1.4.0
	github.com/stretchr/testify v1.3.0
	github.com/technoweenie/multipartstreamer v1.0.1 // indirect
	github.com/tidwall/gjson v1.1.5
	github.com/tidwall/match v1.0.1 // indirect
	github.com/uber/jaeger-client-go v2.16.0+incompatible
	github.com/vmihailenco/msgpack v4.0.1+incompatible
	gitlab.com/bartwillems/kalicoin v0.1.2
	golang.org/x/image v0.0.0-20181116024801-cd38e8056d9b // indirect
	gopkg.in/mgo.v2 v2.0.0-20180705113604-9856a29383ce // indirect
	gopkg.in/robfig/cron.v2 v2.0.0-20150107220207-be2e0b0deed5
)

go 1.13
